<?xml version="1.0" encoding="utf-8"?>
<!-- Generator: Adobe Illustrator 21.1.0, SVG Export Plug-In . SVG Version: 6.00 Build 0)  -->
<svg version="1.1" id="Layer_1" xmlns="http://www.w3.org/2000/svg" xmlns:xlink="http://www.w3.org/1999/xlink" x="0px" y="0px"
	 viewBox="0 0 1178.9 306.3" style="enable-background:new 0 0 1178.9 306.3;" xml:space="preserve">
<style type="text/css">
	.st0{fill:#D6D2C9;}
	.st1{fill:#FFAC2A;}
	.st2{fill:#FFFFFF;}
</style>
<g>
	<g>
		<g>
			<path class="st2" d="M224.4,260.1c6.5,0,11.2,2.1,15.5,6c0.6,0.5,0.6,1.3,0.1,1.8l-3.9,4c-0.4,0.5-1.1,0.5-1.6,0
				c-2.7-2.4-6.3-3.8-9.9-3.8c-8.2,0-14.3,6.9-14.3,14.9c0,8,6.2,14.8,14.4,14.8c3.9,0,7.1-1.5,9.8-3.7c0.5-0.4,1.2-0.4,1.6,0l4,4.1
				c0.5,0.4,0.4,1.3-0.1,1.7c-4.4,4.2-9.9,6.2-15.6,6.2c-12.8,0-23.2-10.2-23.2-23C201.3,270.4,211.6,260.1,224.4,260.1z"/>
		</g>
		<g>
			<path class="st2" d="M269.7,261.9c0-0.6,0.5-1.2,1.2-1.2h18.3c7.7,0,14,6.2,14,13.8c0,5.9-3.9,10.7-9.5,13l8.8,16.3
				c0.4,0.8,0,1.9-1.1,1.9h-6.7c-0.6,0-0.9-0.3-1-0.6l-8.5-17H278v16.4c0,0.6-0.6,1.2-1.2,1.2h-5.9c-0.7,0-1.2-0.6-1.2-1.2V261.9z
				 M288.6,281.2c3.4,0,6.4-3,6.4-6.5c0-3.4-3-6.2-6.4-6.2h-10.5v12.8H288.6z"/>
		</g>
		<g>
			<path class="st2" d="M334.1,261.9c0-0.6,0.6-1.2,1.2-1.2h6c0.6,0,1.2,0.6,1.2,1.2v42.5c0,0.6-0.6,1.2-1.2,1.2h-6
				c-0.6,0-1.2-0.6-1.2-1.2V261.9z"/>
		</g>
		<g>
			<path class="st2" d="M375.6,261.9c0-0.6,0.5-1.2,1.2-1.2h26.1c0.7,0,1.2,0.6,1.2,1.2v5.3c0,0.6-0.5,1.2-1.2,1.2h-19v10.5h15.8
				c0.6,0,1.2,0.6,1.2,1.2v5.3c0,0.7-0.6,1.2-1.2,1.2h-15.8v11.2h19c0.7,0,1.2,0.6,1.2,1.2v5.3c0,0.6-0.5,1.2-1.2,1.2h-26.1
				c-0.7,0-1.2-0.6-1.2-1.2V261.9z"/>
		</g>
		<g>
			<path class="st2" d="M469.7,299.3l2.3-4c0.5-0.9,1.6-0.9,2.2-0.4c0.3,0.2,5.5,4,9.7,4c3.3,0,5.8-2.2,5.8-4.9
				c0-3.3-2.8-5.5-8.1-7.7c-6-2.4-12.1-6.3-12.1-13.9c0-5.7,4.2-12.3,14.4-12.3c6.5,0,11.5,3.3,12.8,4.3c0.6,0.4,0.8,1.5,0.4,2.1
				l-2.4,3.7c-0.5,0.8-1.5,1.3-2.2,0.8c-0.5-0.3-5.4-3.5-8.9-3.5c-3.7,0-5.6,2.4-5.6,4.5c0,3,2.4,5.1,7.6,7.2
				c6.2,2.5,13.4,6.2,13.4,14.5c0,6.6-5.7,12.7-14.8,12.7c-8.1,0-12.8-3.8-14.1-5C469.5,300.7,469.1,300.4,469.7,299.3z"/>
		</g>
		<g>
			<path class="st2" d="M528.9,261.9c0-0.6,0.5-1.2,1.2-1.2h26.1c0.7,0,1.2,0.6,1.2,1.2v5.3c0,0.6-0.5,1.2-1.2,1.2h-19v10.5h15.8
				c0.6,0,1.2,0.6,1.2,1.2v5.3c0,0.7-0.6,1.2-1.2,1.2h-15.8v11.2h19c0.7,0,1.2,0.6,1.2,1.2v5.3c0,0.6-0.5,1.2-1.2,1.2h-26.1
				c-0.7,0-1.2-0.6-1.2-1.2V261.9z"/>
		</g>
		<g>
			<path class="st2" d="M587.4,261.9c0-0.6,0.6-1.2,1.2-1.2h6.1c0.7,0,1.2,0.6,1.2,1.2v26.2c0,5.5,3.7,9.8,9.3,9.8s9.4-4.3,9.4-9.7
				v-26.3c0-0.6,0.5-1.2,1.2-1.2h6.1c0.6,0,1.2,0.6,1.2,1.2v26.7c0,9.8-7.8,17.6-17.9,17.6c-10.1,0-17.8-7.9-17.8-17.6V261.9z"/>
		</g>
		<g>
			<path class="st2" d="M699.3,268.4h-9.8c-0.7,0-1.2-0.6-1.2-1.2v-5.3c0-0.6,0.5-1.2,1.2-1.2h28c0.7,0,1.2,0.6,1.2,1.2v5.3
				c0,0.6-0.5,1.2-1.2,1.2h-9.8v36c0,0.6-0.6,1.2-1.2,1.2h-6c-0.6,0-1.2-0.6-1.2-1.2V268.4z"/>
		</g>
		<g>
			<path class="st2" d="M746.7,261.9c0-0.6,0.5-1.2,1.2-1.2H774c0.7,0,1.2,0.6,1.2,1.2v5.3c0,0.6-0.5,1.2-1.2,1.2h-19v10.5h15.8
				c0.6,0,1.2,0.6,1.2,1.2v5.3c0,0.7-0.6,1.2-1.2,1.2H755v11.2h19c0.7,0,1.2,0.6,1.2,1.2v5.3c0,0.6-0.5,1.2-1.2,1.2h-26.1
				c-0.7,0-1.2-0.6-1.2-1.2V261.9z"/>
		</g>
		<g>
			<path class="st2" d="M810.6,261c0.1-0.5,0.4-1,1.2-1h1c0.5,0,0.9,0.3,1.1,0.6L828,291c0.1,0,0.1,0,0.2,0l14.1-30.3
				c0.2-0.4,0.5-0.6,1.1-0.6h1c0.7,0,1.1,0.4,1.2,1l7.6,43.1c0.2,0.9-0.3,1.5-1.2,1.5h-5.8c-0.6,0-1.1-0.5-1.2-1l-3.8-24.3
				c-0.1,0-0.2,0-0.2,0l-11.2,25.2c-0.1,0.4-0.5,0.7-1.1,0.7h-1.2c-0.6,0-0.9-0.3-1.1-0.7L815,280.3c0,0-0.1,0-0.2,0l-3.7,24.3
				c-0.1,0.4-0.6,1-1.2,1h-5.8c-0.8,0-1.3-0.6-1.2-1.5L810.6,261z"/>
		</g>
		<g>
			<path class="st2" d="M883.5,261.9c0-0.6,0.5-1.2,1.2-1.2h15.1c7.9,0,14.4,6.4,14.4,14.2c0,8-6.5,14.4-14.3,14.4h-8v15.1
				c0,0.6-0.6,1.2-1.2,1.2h-5.9c-0.7,0-1.2-0.6-1.2-1.2V261.9z M899.3,281.5c3.6,0,6.6-2.9,6.6-6.7c0-3.5-3-6.2-6.6-6.2h-7.4v12.9
				H899.3z"/>
		</g>
		<g>
			<path class="st2" d="M963.6,260.1c12.8,0,23.1,10.3,23.1,23.2c0,12.8-10.3,23-23.1,23s-23-10.2-23-23
				C940.6,270.4,950.8,260.1,963.6,260.1z M963.6,297.9c8.1,0,14.8-6.6,14.8-14.7c0-8.1-6.7-14.8-14.8-14.8s-14.7,6.7-14.7,14.8
				C948.9,291.3,955.5,297.9,963.6,297.9z"/>
		</g>
	</g>
	<g>
		<path class="st1" d="M408.6,0c4.5,0,6.7,2.2,6.7,6.7v25.1c0,13.8-12.1,28.4-24.5,31.2c-2.9,0.2-4-2.5-2-4.9
			c6.1-7.2,7-12.8,7.2-17.3c0-1.3-0.9-2.2-2.2-2.2h-12.1c-4.3,0-6.7-2.5-6.7-6.7V6.7c0-4.5,2.5-6.7,6.7-6.7H408.6z"/>
	</g>
	<g>
		<path class="st2" d="M142,14h-0.5c-4.6,0-8.5,2.1-11,6l-53.3,86.4L24.1,20.2c0,0-0.2-0.2-0.2-0.3c-2.6-3.8-6.5-6-11-6h-0.5
			C5.5,14,0,19.6,0,26.7v151.4c0,7.1,5.1,12.4,11.9,12.4h0.5c6.8,0,11.9-5.3,11.9-12.4v-111l41.5,67.4c2.3,3.9,6.7,6.5,11.3,6.5
			c4.6,0,9.1-2.5,11.3-6.5L130,67.1v111c0,7.1,5.1,12.4,11.9,12.4h0.5c6.8,0,11.9-5.3,11.9-12.4V26.7C154.4,19.6,148.9,14,142,14z"
			/>
	</g>
	<g>
		<path class="st2" d="M323.1,166.1H246v-53.9h51.4c7.1,0,12.4-5.1,12.4-11.9V100c0-6.8-5.3-11.9-12.4-11.9H246V38.4h73.9
			c7.1,0,12.4-5.1,12.4-11.9v-0.2c0-6.8-5.3-11.9-12.4-11.9h-84.5c-6.9,0-13.8,4.4-13.8,14.1v147.8c0,9.7,7,14.1,13.8,14.1h87.7
			c7.1,0,12.4-5.1,12.4-11.9v-0.2C335.5,171.3,330.2,166.1,323.1,166.1z"/>
	</g>
	<g>
		<path class="st2" d="M590.9,14h-0.5c-6.8,0-11.9,5.3-11.9,12.4v116.9L485.2,20.6C481.5,15.2,477,14,474,14h-0.7
			c-7.2,0-12.7,5.4-12.7,12.7v151.4c0,7.1,5.1,12.4,11.9,12.4h0.5c6.8,0,11.9-5.3,11.9-12.4V60.5l93.7,123.3
			c2.9,4.4,6.7,6.6,11.3,6.6h0.5c7.1,0,12.4-5.2,12.4-12.2V26.5C602.9,19.4,597.7,14,590.9,14z"/>
	</g>
	<g>
		<path class="st2" d="M789.3,14h-0.5c-6.8,0-11.9,5.3-11.9,12.4v94.4c0,16.4-3.3,28-10.2,35.6c-6.8,7.5-17.3,11.1-32.2,11.1
			c-14.9,0-25.4-3.6-32.2-11.1c-6.8-7.5-10.2-19.1-10.2-35.6V26.5c0-7.1-5.1-12.4-11.9-12.4h-0.5c-6.8,0-11.9,5.3-11.9,12.4v94.4
			c0,46.3,23.1,70.8,66.8,70.8c43.7,0,66.8-24.5,66.8-70.8V26.5C801.2,19.4,796.1,14,789.3,14z"/>
	</g>
	<g>
		<path class="st2" d="M971.8,14.3H856.5c-7.1,0-12.4,5.1-12.4,11.9v0.2c0,6.8,5.3,11.9,12.4,11.9H902v139.7
			c0,7.1,5.1,12.4,11.9,12.4h0.5c6.8,0,11.9-5.3,11.9-12.4V38.4h45.5c7.1,0,12.4-5.1,12.4-11.9v-0.2
			C984.2,19.4,978.9,14.3,971.8,14.3z"/>
	</g>
	<g>
		<path class="st2" d="M1094.1,12.8c-49.5,0-85.5,37.8-85.5,89.8c0,51.6,35.8,89.1,85,89.1c49.4,0,85.3-37.7,85.3-89.5
			C1178.9,50.4,1143.2,12.8,1094.1,12.8z M1093.6,167.5c-35.7,0-60.7-26.7-60.7-64.9c0-38.6,25.1-65.6,61.1-65.6
			c35.6,0,60.4,26.8,60.4,65.2C1154.5,140.7,1129.5,167.5,1093.6,167.5z"/>
	</g>
</g>
</svg>
