<?xml version="1.0" encoding="UTF-8"?>
<svg width="138px" height="23px" viewBox="0 0 138 23" version="1.1" xmlns="http://www.w3.org/2000/svg" xmlns:xlink="http://www.w3.org/1999/xlink">
    <!-- Generator: sketchtool 48.1 (47250) - http://www.bohemiancoding.com/sketch -->
    <title>A4B60787-9A61-4ABE-9E2C-4BD8C1061E33</title>
    <desc>Created with sketchtool.</desc>
    <defs></defs>
    <g id="logo/menuto_logo" stroke="none" stroke-width="1" fill="none" fill-rule="evenodd">
        <g fill-rule="nonzero">
            <path d="M48.1687345,0 C48.7270471,0 49,0.244403788 49,0.744320628 L49,3.53274567 C49,5.06582398 47.4987593,6.68777639 45.9602978,6.99883576 C45.6004963,7.02105428 45.4640199,6.72110418 45.7121588,6.45448187 C46.4689826,5.65461492 46.5806452,5.03249619 46.6054591,4.53257935 C46.6054591,4.38815893 46.4937965,4.28817556 46.3325062,4.28817556 L44.8312655,4.28817556 C44.2977667,4.28817556 44,4.01044398 44,3.54385493 L44,0.744320628 C44,0.244403788 44.3101737,0 44.8312655,0 L48.1687345,0 Z" id="Shape" fill="#FFAC2A"></path>
            <g id="Group" transform="translate(0.000000, 1.000000)" fill="#000000">
                <path d="M16.6208651,0.244444444 L16.562341,0.244444444 C16.0239186,0.244444444 15.56743,0.501111111 15.2748092,0.977777778 L9.03613232,11.5377778 L2.82086514,1.00222222 C2.82086514,1.00222222 2.79745547,0.977777778 2.79745547,0.965555556 C2.49312977,0.501111111 2.03664122,0.232222222 1.50992366,0.232222222 L1.45139949,0.232222222 C0.643765903,0.244444444 0,0.928888889 0,1.79666667 L0,20.3011111 C0,21.1688889 0.596946565,21.8166667 1.39287532,21.8166667 L1.45139949,21.8166667 C2.24732824,21.8166667 2.84427481,21.1688889 2.84427481,20.3011111 L2.84427481,6.73444444 L7.70178117,14.9722222 C7.97099237,15.4488889 8.48600509,15.7666667 9.02442748,15.7666667 C9.56284987,15.7666667 10.0895674,15.4611111 10.3470738,14.9722222 L15.216285,6.73444444 L15.216285,20.3011111 C15.216285,21.1688889 15.8132316,21.8166667 16.6091603,21.8166667 L16.6676845,21.8166667 C17.4636132,21.8166667 18.0605598,21.1688889 18.0605598,20.3011111 L18.0605598,1.79666667 C18.0722646,0.928888889 17.4284987,0.244444444 16.6208651,0.244444444 Z" id="Shape"></path>
                <path d="M37.8183206,18.8344444 L28.7938931,18.8344444 L28.7938931,12.2466667 L34.8101781,12.2466667 C35.6412214,12.2466667 36.2615776,11.6233333 36.2615776,10.7922222 L36.2615776,10.7555556 C36.2615776,9.92444444 35.6412214,9.30111111 34.8101781,9.30111111 L28.7938931,9.30111111 L28.7938931,3.22666667 L37.4437659,3.22666667 C38.2748092,3.22666667 38.8951654,2.60333333 38.8951654,1.77222222 L38.8951654,1.74777778 C38.8951654,0.916666667 38.2748092,0.293333333 37.4437659,0.293333333 L27.5531807,0.293333333 C26.7455471,0.293333333 25.9379135,0.831111111 25.9379135,2.01666667 L25.9379135,20.0811111 C25.9379135,21.2666667 26.7572519,21.8044444 27.5531807,21.8044444 L37.8183206,21.8044444 C38.6493639,21.8044444 39.2697201,21.1811111 39.2697201,20.35 L39.2697201,20.3255556 C39.2697201,19.47 38.6493639,18.8344444 37.8183206,18.8344444 Z" id="Shape"></path>
                <path d="M69.1638677,0.244444444 L69.1053435,0.244444444 C68.3094148,0.244444444 67.7124682,0.892222222 67.7124682,1.76 L67.7124682,16.0477778 L56.7918575,1.05111111 C56.3587786,0.391111111 55.8320611,0.244444444 55.480916,0.244444444 L55.3989822,0.244444444 C54.5562341,0.244444444 53.9124682,0.904444444 53.9124682,1.79666667 L53.9124682,20.3011111 C53.9124682,21.1688889 54.5094148,21.8166667 55.3053435,21.8166667 L55.3638677,21.8166667 C56.1597964,21.8166667 56.756743,21.1688889 56.756743,20.3011111 L56.756743,5.92777778 L67.724173,20.9977778 C68.0636132,21.5355556 68.5083969,21.8044444 69.0468193,21.8044444 L69.1053435,21.8044444 C69.9363868,21.8044444 70.556743,21.1688889 70.556743,20.3133333 L70.556743,1.77222222 C70.5684478,0.904444444 69.9597964,0.244444444 69.1638677,0.244444444 Z" id="Shape"></path>
                <path d="M92.3862595,0.244444444 L92.3277354,0.244444444 C91.5318066,0.244444444 90.9348601,0.892222222 90.9348601,1.76 L90.9348601,13.2977778 C90.9348601,15.3022222 90.5486005,16.72 89.7409669,17.6488889 C88.9450382,18.5655556 87.7160305,19.0055556 85.9720102,19.0055556 C84.2279898,19.0055556 82.9989822,18.5655556 82.2030534,17.6488889 C81.4071247,16.7322222 81.0091603,15.3144444 81.0091603,13.2977778 L81.0091603,1.77222222 C81.0091603,0.904444444 80.4122137,0.256666667 79.616285,0.256666667 L79.5577608,0.256666667 C78.7618321,0.256666667 78.1648855,0.904444444 78.1648855,1.77222222 L78.1648855,13.31 C78.1648855,18.9688889 80.8687023,21.9633333 85.983715,21.9633333 C91.0987277,21.9633333 93.8025445,18.9688889 93.8025445,13.31 L93.8025445,1.77222222 C93.7791349,0.904444444 93.1821883,0.244444444 92.3862595,0.244444444 Z" id="Shape"></path>
                <path d="M113.747583,0.281111111 L100.251908,0.281111111 C99.4208651,0.281111111 98.8005089,0.904444444 98.8005089,1.73555556 L98.8005089,1.76 C98.8005089,2.59111111 99.4208651,3.21444444 100.251908,3.21444444 L105.577608,3.21444444 L105.577608,20.2888889 C105.577608,21.1566667 106.174555,21.8044444 106.970483,21.8044444 L107.029008,21.8044444 C107.824936,21.8044444 108.421883,21.1566667 108.421883,20.2888889 L108.421883,3.22666667 L113.747583,3.22666667 C114.578626,3.22666667 115.198982,2.60333333 115.198982,1.77222222 L115.198982,1.74777778 C115.198982,0.904444444 114.578626,0.281111111 113.747583,0.281111111 Z" id="Shape"></path>
                <path d="M128.062595,0.0977777778 C122.268702,0.0977777778 118.054962,4.71777778 118.054962,11.0733333 C118.054962,17.38 122.245293,21.9633333 128.004071,21.9633333 C133.78626,21.9633333 137.988295,17.3555556 137.988295,11.0244444 C137.988295,4.69333333 133.809669,0.0977777778 128.062595,0.0977777778 Z M128.004071,19.0055556 C123.825445,19.0055556 120.899237,15.7422222 120.899237,11.0733333 C120.899237,6.35555556 123.83715,3.05555556 128.050891,3.05555556 C132.217812,3.05555556 135.120611,6.33111111 135.120611,11.0244444 C135.132316,15.73 132.206107,19.0055556 128.004071,19.0055556 Z" id="Shape"></path>
            </g>
        </g>
    </g>
</svg>"Shape"></path>
                </g>
            </g>
        </g>
    </g>
</svg>