<?xml version="1.0" encoding="UTF-8"?>
<svg width="28px" height="46px" viewBox="0 0 28 46" version="1.1" xmlns="http://www.w3.org/2000/svg" xmlns:xlink="http://www.w3.org/1999/xlink">
    <!-- Generator: sketchtool 48.1 (47250) - http://www.bohemiancoding.com/sketch -->
    <title>72876C1B-EACE-4439-910B-A2ECB778A737</title>
    <desc>Created with sketchtool.</desc>
    <defs></defs>
    <g id="Symbols" stroke="none" stroke-width="1" fill="none" fill-rule="evenodd">
        <g id="SIMBOLO" fill="#FFAC2A">
            <g id="Group-5-Copy">
                <g id="Menuto_logo_RGB-12" fill-rule="nonzero">
                    <path d="M23.3071651,0 L4.66666667,0 C1.70965732,0 0,1.59955733 0,4.80765826 L0,22.7622399 C0,25.8085879 1.70965732,27.5698982 4.66666667,27.5698982 L13.0404984,27.5698982 C13.9738318,27.5698982 14.5931464,28.2079239 14.5931464,29.1694555 C14.4361371,32.3775564 13.8168224,36.385436 9.61246106,41.5166003 C8.20809969,43.2779106 8.99314642,45.2009739 11.0168224,45.0392209 C19.5738318,43.0442674 27.9738318,32.6381585 27.9738318,22.7532537 L27.9738318,4.80765826 C27.9738318,1.59955733 26.4211838,0 23.3071651,0 Z M21.7021807,21.4592297 C21.7021807,22.214077 21.1700935,22.7802125 20.4722741,22.7802125 L20.4286604,22.7802125 C19.7308411,22.7802125 19.1987539,22.214077 19.1987539,21.4592297 L19.1987539,10.2443559 L15.1601246,17.0110226 C14.9246106,17.4243913 14.471028,17.6939796 13.9912773,17.6939796 C13.5202492,17.6939796 13.0579439,17.4243913 12.8224299,17.0110226 L8.78380062,10.2443559 L8.78380062,21.4502435 C8.78380062,22.2050907 8.2517134,22.7712262 7.55389408,22.7712262 L7.50155763,22.7712262 C6.80373832,22.7712262 6.27165109,22.2050907 6.27165109,21.4502435 L6.27165109,5.95790173 C6.27165109,5.20305445 6.82990654,4.61894644 7.55389408,4.61894644 L7.59750779,4.61894644 C8.05981308,4.61894644 8.46105919,4.84360336 8.73146417,5.24798583 C8.73146417,5.24798583 8.74890966,5.27494467 8.74890966,5.27494467 L13.9912773,14.0365649 L19.2510903,5.25697211 C19.5127726,4.85258964 19.9140187,4.62793271 20.3850467,4.62793271 L20.4286604,4.62793271 C21.1439252,4.62793271 21.7109034,5.221027 21.7109034,5.966888 L21.7109034,21.4592297 L21.7021807,21.4592297 Z" id="Shape"></path>
                </g>
                <rect id="Rectangle-10" x="3.11111111" y="3.11111111" width="21.7777778" height="23.3333333"></rect>
            </g>
        </g>
    </g>
</svg>