<?xml version="1.0" encoding="UTF-8"?>
<svg width="44px" height="44px" viewBox="0 0 44 44" version="1.1" xmlns="http://www.w3.org/2000/svg" xmlns:xlink="http://www.w3.org/1999/xlink">
    <!-- Generator: Sketch 47.1 (45422) - http://www.bohemiancoding.com/sketch -->
    <title>PASSAR_BTN</title>
    <desc>Created with Sketch.</desc>
    <defs></defs>
    <g id="Symbols" stroke="none" stroke-width="1" fill="none" fill-rule="evenodd">
        <g id="PASSAR_BTN">
            <g id="Group-2-Copy-4">
                <rect id="Rectangle" stroke="#CECECE" fill="#FFFFFF" stroke-linecap="square" x="0" y="0" width="44" height="44"></rect>
                <path d="M24.6097722,18 C24.6097722,18 23.0731815,19.5365907 20,22.6097722 L24.3360937,26.9458659" id="Path-2" stroke="#FFB02B"></path>
            </g>
        </g>
    </g>
</svg>