<?xml version="1.0" encoding="UTF-8"?>
<svg width="18px" height="9px" viewBox="0 0 18 9" version="1.1" xmlns="http://www.w3.org/2000/svg" xmlns:xlink="http://www.w3.org/1999/xlink">
    <!-- Generator: Sketch 47.1 (45422) - http://www.bohemiancoding.com/sketch -->
    <title>icon/arrow3</title>
    <desc>Created with Sketch.</desc>
    <defs></defs>
    <g id="Symbols" stroke="none" stroke-width="1" fill="none" fill-rule="evenodd">
        <g id="icon/arrow3" stroke="#FFB02B">
            <g>
                <path d="M17.6097722,0 C17.6097722,-3.03148812e-13 16.0731815,1.53659074 13,4.60977223 L17.3360937,8.9458659" id="Path-2" transform="translate(15.304886, 4.472933) scale(-1, 1) translate(-15.304886, -4.472933) "></path>
                <path d="M15.5,4.5 L0.5,4.5" id="Line-2" stroke-linecap="square"></path>
            </g>
        </g>
    </g>
</svg>