<?xml version="1.0" encoding="UTF-8"?>
<svg width="11px" height="20px" viewBox="0 0 11 20" version="1.1" xmlns="http://www.w3.org/2000/svg" xmlns:xlink="http://www.w3.org/1999/xlink">
    <!-- Generator: Sketch 47.1 (45422) - http://www.bohemiancoding.com/sketch -->
    <title>FB_BLACK_ICON</title>
    <desc>Created with Sketch.</desc>
    <defs></defs>
    <g id="Symbols" stroke="none" stroke-width="1" fill="none" fill-rule="evenodd">
        <g id="FB_BLACK_ICON" fill-rule="nonzero" fill="#000000">
            <g id="001-facebook-logo">
                <path d="M10.3276289,0.00412371134 L7.75752577,0 C4.87010309,0 3.00412371,1.91443299 3.00412371,4.87752577 L3.00412371,7.12639175 L0.42,7.12639175 C0.196701031,7.12639175 0.0158762887,7.30742268 0.0158762887,7.53072165 L0.0158762887,10.7890722 C0.0158762887,11.0123711 0.196907216,11.1931959 0.42,11.1931959 L3.00412371,11.1931959 L3.00412371,19.4150515 C3.00412371,19.6383505 3.18494845,19.8191753 3.40824742,19.8191753 L6.77979381,19.8191753 C7.00309278,19.8191753 7.18391753,19.6381443 7.18391753,19.4150515 L7.18391753,11.1931959 L10.2053608,11.1931959 C10.4286598,11.1931959 10.6094845,11.0123711 10.6094845,10.7890722 L10.6107216,7.53072165 C10.6107216,7.42350515 10.5680412,7.32082474 10.4923711,7.24494845 C10.416701,7.16907216 10.3136082,7.12639175 10.2063918,7.12639175 L7.18391753,7.12639175 L7.18391753,5.22 C7.18391753,4.30371134 7.40226804,3.8385567 8.59587629,3.8385567 L10.3272165,3.83793814 C10.5503093,3.83793814 10.731134,3.65690722 10.731134,3.43381443 L10.731134,0.408247423 C10.731134,0.185360825 10.5505155,0.00453608247 10.3276289,0.00412371134 Z" id="Shape"></path>
            </g>
        </g>
    </g>
</svg>