<?xml version="1.0" encoding="UTF-8"?>
<svg width="45px" height="46px" viewBox="0 0 45 46" version="1.1" xmlns="http://www.w3.org/2000/svg" xmlns:xlink="http://www.w3.org/1999/xlink">
    <!-- Generator: sketchtool 47.1 (45422) - http://www.bohemiancoding.com/sketch -->
    <title>2299EA07-9012-49B5-A91A-291D01800E3D</title>
    <desc>Created with sketchtool.</desc>
    <defs></defs>
    <g id="1.0---Home" stroke="none" stroke-width="1" fill="none" fill-rule="evenodd">
        <g id="1.0---Home-Video" transform="translate(-1321.000000, -2089.000000)">
            <g id="PASSAR_BTN" transform="translate(1344.000000, 2112.000000) scale(-1, 1) translate(-1344.000000, -2112.000000) translate(1322.000000, 2090.000000)">
                <g id="Group-2-Copy-4">
                    <rect id="Rectangle" stroke="#CECECE" fill="#FFFFFF" stroke-linecap="square" x="0" y="0" width="44" height="44"></rect>
                    <path d="M24.6097722,18 C24.6097722,18 23.0731815,19.5365907 20,22.6097722 L24.3360937,26.9458659" id="Path-2" stroke="#FFB02B"></path>
                </g>
            </g>
        </g>
    </g>
</svg>