<svg xmlns="http://www.w3.org/2000/svg" width="73" height="18" viewBox="0 0 73 18">
    <g fill="none" fill-rule="evenodd">
        <g fill="#000" opacity=".3">
            <rect width="19.2" height="1.6" x="-1.6" y="8" rx=".8" transform="rotate(45 8 8.8)"/>
            <path d="M14.223 1.446L.646 15.023l1.131 1.13L15.354 2.578z"/>
        </g>
        <text fill="#979797" font-family="Gotham-MK3-Medium, Gotham-MK3" font-size="11" font-weight="500" letter-spacing=".1">
            <tspan x="24" y="12.5">FECHAR</tspan>
        </text>
    </g>
</svg>
