<?xml version="1.0" encoding="UTF-8"?>
<svg width="10px" height="11px" viewBox="0 0 10 11" version="1.1" xmlns="http://www.w3.org/2000/svg" xmlns:xlink="http://www.w3.org/1999/xlink">
    <!-- Generator: Sketch 47.1 (45422) - http://www.bohemiancoding.com/sketch -->
    <title>HAMBURGUER_ON_BTN</title>
    <desc>Created with Sketch.</desc>
    <defs></defs>
    <g id="Symbols" stroke="none" stroke-width="1" fill="none" fill-rule="evenodd">
        <g id="HAMBURGUER_ON_BTN" fill="#000000">
            <g id="Group-12">
                <rect id="Rectangle" transform="translate(5.000000, 5.500000) rotate(45.000000) translate(-5.000000, -5.500000) " x="-1" y="5" width="12" height="1" rx="0.5"></rect>
                <rect id="Rectangle-Copy-2" transform="translate(5.000000, 5.500000) scale(-1, 1) rotate(45.000000) translate(-5.000000, -5.500000) " x="-1" y="5" width="12" height="1"></rect>
            </g>
        </g>
    </g>
</svg>