<svg xmlns="http://www.w3.org/2000/svg" width="28" height="60" viewBox="0 0 28 60">
    <g fill="#000000" fill-rule="nonzero">
        <path d="M13.777 11.556a5.784 5.784 0 0 0 5.779-5.778A5.784 5.784 0 0 0 13.777 0 5.783 5.783 0 0 0 8 5.778a5.784 5.784 0 0 0 5.777 5.778zm0-10.048a4.275 4.275 0 0 1 4.271 4.27 4.275 4.275 0 0 1-4.27 4.27 4.275 4.275 0 0 1-4.27-4.27 4.275 4.275 0 0 1 4.27-4.27zM27.968 30.662L23.533 15.32a2.947 2.947 0 0 0-2.916-2.432H7.383a2.948 2.948 0 0 0-2.917 2.432L.03 30.66a.74.74 0 0 0 .004.433 2.592 2.592 0 0 0-.033.41c0 1.627 1.331 2.95 2.97 2.95 1.431 0 2.657-1.016 2.903-2.355l1.915-7.063-3.167 15.246c-.14.348-.21.714-.21 1.087 0 1.626 1.333 2.95 2.971 2.95h.323V57.05c0 1.627 1.333 2.949 2.97 2.949 1.638 0 2.97-1.323 2.97-2.95V44.32h.71V57.05c0 1.627 1.332 2.949 2.97 2.949 1.638 0 2.97-1.323 2.97-2.95V44.32h.323c1.638 0 2.97-1.324 2.97-2.95 0-.376-.07-.74-.21-1.089l-3.165-15.245 1.9 7.003a2.962 2.962 0 0 0 2.917 2.417c1.638 0 2.969-1.324 2.969-2.95 0-.135-.012-.271-.034-.412a.757.757 0 0 0 .002-.431zm-2.939 2.274c-.694 0-1.29-.493-1.428-1.233l-3.761-13.87a.762.762 0 0 0-.738-.562h-1.125a.757.757 0 0 0-.748.912l4.667 22.473c.01.05.025.1.046.147.078.18.117.37.117.565 0 .79-.647 1.431-1.442 1.431H19.53a.761.761 0 0 0-.764.76v13.49c0 .79-.647 1.433-1.442 1.433a1.44 1.44 0 0 1-1.442-1.432V43.558a.761.761 0 0 0-.764-.759H12.88a.761.761 0 0 0-.764.76v13.49c0 .79-.647 1.433-1.442 1.433a1.44 1.44 0 0 1-1.442-1.432V43.558a.761.761 0 0 0-.764-.759H7.381a1.44 1.44 0 0 1-1.443-1.431c0-.193.04-.384.119-.566a.828.828 0 0 0 .045-.146l4.667-22.473a.757.757 0 0 0-.747-.912H8.895a.764.764 0 0 0-.738.561L4.383 31.764a1.434 1.434 0 0 1-1.414 1.17 1.44 1.44 0 0 1-1.443-1.43c0-.113.02-.24.067-.398a.755.755 0 0 0 .008-.385l4.343-15.023a.635.635 0 0 0 .02-.088 1.43 1.43 0 0 1 1.416-1.205h13.235c.708 0 1.302.507 1.416 1.205a.83.83 0 0 0 .02.088l4.343 15.023a.75.75 0 0 0 .01.39c.044.15.065.277.065.392a1.437 1.437 0 0 1-1.44 1.433z"/>
    </g>
</svg>
