<?xml version="1.0" encoding="UTF-8"?>
<svg width="12px" height="9px" viewBox="0 0 12 9" version="1.1" xmlns="http://www.w3.org/2000/svg" xmlns:xlink="http://www.w3.org/1999/xlink">
    <!-- Generator: Sketch 47.1 (45422) - http://www.bohemiancoding.com/sketch -->
    <title>icon/hamburguer</title>
    <desc>Created with Sketch.</desc>
    <defs></defs>
    <g id="Symbols" stroke="none" stroke-width="1" fill="none" fill-rule="evenodd">
        <g id="icon/hamburguer" fill="#000000">
            <g id="Group-2">
                <g id="Group">
                    <rect id="Rectangle" x="0" y="0" width="12" height="1"></rect>
                    <rect id="Rectangle-Copy" x="0" y="4" width="12" height="1"></rect>
                    <rect id="Rectangle-Copy-2" x="0" y="8" width="12" height="1"></rect>
                </g>
            </g>
        </g>
    </g>
</svg>