<svg xmlns="http://www.w3.org/2000/svg" width="11" height="11" viewBox="0 0 11 11">
    <circle cx="4.5" cy="4.5" r="4.5" fill="none" fill-rule="evenodd" stroke="#343434" transform="translate(1 1)"/>
</svg>
