<svg xmlns="http://www.w3.org/2000/svg" width="18" height="12" viewBox="0 0 18 12">
    <g fill="#FFB02B" fill-rule="nonzero">
        <path d="M17.886 5.349C17.725 5.13 13.893 0 9 0 4.106 0 .275 5.13.114 5.348a.587.587 0 0 0 0 .696c.16.218 3.992 5.348 8.886 5.348 4.893 0 8.725-5.13 8.886-5.348a.586.586 0 0 0 0-.695zM9 10.214c-3.605 0-6.727-3.405-7.65-4.518C2.271 4.582 5.387 1.179 9 1.179c3.604 0 6.726 3.404 7.65 4.518-.922 1.114-4.038 4.517-7.65 4.517z"/>
        <path d="M9.057 2.165c-1.979 0-3.589 1.584-3.589 3.531 0 1.948 1.61 3.532 3.589 3.532 1.979 0 3.589-1.584 3.589-3.532 0-1.947-1.61-3.531-3.589-3.531zm0 5.886c-1.32 0-2.392-1.057-2.392-2.355s1.073-2.354 2.392-2.354c1.32 0 2.392 1.056 2.392 2.354s-1.073 2.355-2.392 2.355z"/>
    </g>
</svg>
